<?xml version="1.0" encoding="UTF-8"?>
<session version="1.0">
<refactoring accessors="true" comment="Delete element from project &apos;DS&apos;&#x0A;- Original project: &apos;DS&apos;&#x0A;- Original element: &apos;practice190430.Factorial.java&apos;" description="Delete element" element1="/src&lt;practice190430{Factorial.java" elements="1" flags="589830" id="org.eclipse.jdt.ui.delete" resources="0" stamp="1556757194614" subPackages="false" version="1.0"/>
</session>